<?xml version="1.0" encoding="utf-8"?>
<!-- Generator: Adobe Illustrator 22.0.1, SVG Export Plug-In . SVG Version: 6.00 Build 0)  -->
<svg version="1.1" id="Layer_1" xmlns="http://www.w3.org/2000/svg" xmlns:xlink="http://www.w3.org/1999/xlink" x="0px" y="0px"
	 viewBox="0 0 255.1 510.2" style="enable-background:new 0 0 255.1 510.2;" xml:space="preserve">
<style type="text/css">
	.st0{fill:#A75533;stroke:#A75533;stroke-width:3;stroke-miterlimit:10;}
	.st1{fill:#A75533;stroke:#A75533;stroke-width:1.5;stroke-linejoin:round;stroke-miterlimit:10;}
	.st2{fill:#EB5028;stroke:#EB5028;stroke-width:3;stroke-miterlimit:10;}
	.st3{fill:#EB5028;stroke:#EB5028;stroke-width:1.5;stroke-linejoin:round;stroke-miterlimit:10;}
</style>
<g>
	<g>
		<g>
			<g>
				<g>
					<path class="st0" d="M127.6,252.3L2.8,127.6L127.6,2.8l124.7,124.7L127.6,252.3z M5.8,127.6l121.7,121.7l121.7-121.7L127.6,5.8
						L5.8,127.6z"/>
				</g>
				<g>
					<g>
						<rect x="32.9" y="44.2" class="st0" width="2.1" height="166.6"/>
					</g>
					<g>
						<rect x="220.1" y="44.2" class="st0" width="2.1" height="166.6"/>
					</g>
				</g>
				<g>
					<path class="st0" d="M127.6,200.7c-40.3,0-73.1-32.8-73.1-73.1c0-40.3,32.8-73.1,73.1-73.1c40.3,0,73.1,32.8,73.1,73.1
						C200.7,167.9,167.9,200.7,127.6,200.7z M127.6,56.5c-39.2,0-71,31.9-71,71s31.9,71,71,71c39.2,0,71-31.9,71-71
						S166.7,56.5,127.6,56.5z"/>
				</g>
				<g>
					<g>
						<path class="st0" d="M127.6,180.3c-22.3,0-42.3-14.1-49.8-35.1l1.9-0.7c7.2,20.2,26.4,33.8,47.8,33.8
							c21.4,0,40.6-13.6,47.8-33.8l1.9,0.7C169.9,166.2,149.9,180.3,127.6,180.3z"/>
					</g>
					<g>
						<path class="st0" d="M79.8,110.6l-1.9-0.7c7.5-21,27.4-35.1,49.8-35.1s42.3,14.1,49.7,35.1l-1.9,0.7
							c-7.2-20.2-26.4-33.8-47.8-33.8C106.1,76.8,86.9,90.4,79.8,110.6z"/>
					</g>
				</g>
			</g>
		</g>
	</g>
	<g>
		<path class="st1" d="M66.9,118.5h4.7c2.1,0,3.7,0.4,4.6,1.3c1,0.9,1.4,2,1.4,3.5c0,1.8-0.8,3.1-2.4,3.9c0.6,0.2,1.1,0.4,1.5,0.7
			c0.4,0.3,0.7,0.7,1,1.1c0.2,0.4,0.4,0.8,0.5,1.3s0.2,0.9,0.2,1.4c0,0.9-0.1,1.7-0.4,2.4c-0.3,0.7-0.7,1.2-1.3,1.7s-1.2,0.8-2,1
			s-1.6,0.3-2.6,0.3h-5.3V118.5z M71.9,126.4c1.2,0,2.1-0.3,2.6-0.8c0.5-0.5,0.8-1.3,0.8-2.3c0-0.9-0.3-1.6-0.9-2.1
			c-0.6-0.4-1.5-0.7-2.7-0.7h-2.4v5.9H71.9z M72.3,134.8c1.3,0,2.2-0.3,2.9-0.9c0.6-0.6,1-1.4,1-2.4c0-1-0.3-1.8-0.9-2.4
			c-0.6-0.5-1.6-0.8-2.9-0.8h-3v6.5H72.3z"/>
		<path class="st1" d="M97.9,122.2l-8.6,14.6H87v-18.4h2.4v14.6l8.6-14.6h2.3v18.4h-2.3V122.2z"/>
		<path class="st1" d="M113.4,129.3c-0.1,1.2-0.3,2.3-0.5,3.2c-0.2,1-0.5,1.8-0.8,2.4c-0.3,0.7-0.8,1.2-1.3,1.5
			c-0.5,0.4-1.2,0.5-1.9,0.5c-0.2,0-0.4,0-0.6-0.1c-0.1,0-0.2-0.1-0.2-0.1v-2c0,0,0.1,0,0.1,0c0.1,0,0.2,0,0.3,0
			c0.8,0,1.4-0.5,1.8-1.5c0.4-1,0.7-2.4,0.8-4.4c0.1-1.2,0.1-2.4,0.2-3.6c0-1.2,0.1-2.4,0.1-3.4c0-1.2,0-2.4,0-3.5h10.2v18.4h-2.3
			v-16.3h-5.8c0,0.4,0,0.9,0,1.5s0,1.3,0,2.1c0,0.8,0,1.6-0.1,2.5C113.5,127.6,113.5,128.4,113.4,129.3z"/>
		<path class="st1" d="M131.3,118.5h2.4v8h1.3l5.7-8h2.5l-6.3,8.9l6.7,9.5h-2.7l-5.9-8.3h-1.3v8.3h-2.4V118.5z"/>
		<path class="st1" d="M156.8,137.1c-2.4,0-4.2-0.8-5.4-2.4c-1.2-1.6-1.8-4-1.8-7c0-3.1,0.6-5.4,1.8-7c1.2-1.6,3-2.4,5.4-2.4
			c2.4,0,4.2,0.8,5.4,2.4c1.2,1.6,1.8,4,1.8,7c0,3.1-0.6,5.4-1.8,7C161,136.3,159.2,137.1,156.8,137.1z M156.8,135.1
			c1.7,0,2.9-0.6,3.6-1.8c0.8-1.2,1.2-3.1,1.2-5.6s-0.4-4.4-1.2-5.6c-0.8-1.2-2-1.8-3.6-1.8c-1.7,0-2.9,0.6-3.6,1.8
			c-0.8,1.2-1.2,3.1-1.2,5.6s0.4,4.4,1.2,5.6C153.9,134.5,155.1,135.1,156.8,135.1z"/>
		<path class="st1" d="M174.4,122l-0.6,14.9h-2.1l0.8-18.4h2.7l5.1,13.7l5.1-13.7h2.6l0.8,18.4h-2.3L186,122l-5,13.7h-1.7L174.4,122
			z"/>
	</g>
</g>
<g>
	<g>
		<g>
			<g>
				<g>
					<path class="st2" d="M127.6,507.4L2.8,382.7L127.6,258l124.7,124.7L127.6,507.4z M5.8,382.7l121.7,121.7l121.7-121.7
						L127.6,260.9L5.8,382.7z"/>
				</g>
				<g>
					<g>
						<rect x="32.9" y="299.4" class="st2" width="2.1" height="166.6"/>
					</g>
					<g>
						<rect x="220.1" y="299.4" class="st2" width="2.1" height="166.6"/>
					</g>
				</g>
				<g>
					<path class="st2" d="M127.6,455.8c-40.3,0-73.1-32.8-73.1-73.1c0-40.3,32.8-73.1,73.1-73.1c40.3,0,73.1,32.8,73.1,73.1
						C200.7,423,167.9,455.8,127.6,455.8z M127.6,311.6c-39.2,0-71,31.9-71,71s31.9,71,71,71c39.2,0,71-31.9,71-71
						S166.7,311.6,127.6,311.6z"/>
				</g>
				<g>
					<g>
						<path class="st2" d="M127.6,435.5c-22.3,0-42.3-14.1-49.8-35.1l1.9-0.7c7.2,20.2,26.4,33.8,47.8,33.8
							c21.4,0,40.6-13.6,47.8-33.8l1.9,0.7C169.9,421.3,149.9,435.5,127.6,435.5z"/>
					</g>
					<g>
						<path class="st2" d="M79.8,365.7l-1.9-0.7c7.5-21,27.4-35.1,49.8-35.1s42.3,14.1,49.7,35.1l-1.9,0.7
							c-7.2-20.2-26.4-33.8-47.8-33.8C106.1,332,86.9,345.5,79.8,365.7z"/>
					</g>
				</g>
			</g>
		</g>
	</g>
	<g>
		<path class="st3" d="M66.9,373.6h4.7c2.1,0,3.7,0.4,4.6,1.3c1,0.9,1.4,2,1.4,3.5c0,1.8-0.8,3.1-2.4,3.9c0.6,0.2,1.1,0.4,1.5,0.7
			c0.4,0.3,0.7,0.7,1,1.1c0.2,0.4,0.4,0.8,0.5,1.3s0.2,0.9,0.2,1.4c0,0.9-0.1,1.7-0.4,2.4c-0.3,0.7-0.7,1.2-1.3,1.7s-1.2,0.8-2,1
			s-1.6,0.3-2.6,0.3h-5.3V373.6z M71.9,381.5c1.2,0,2.1-0.3,2.6-0.8c0.5-0.5,0.8-1.3,0.8-2.3c0-0.9-0.3-1.6-0.9-2.1
			c-0.6-0.4-1.5-0.7-2.7-0.7h-2.4v5.9H71.9z M72.3,390c1.3,0,2.2-0.3,2.9-0.9c0.6-0.6,1-1.4,1-2.4c0-1-0.3-1.8-0.9-2.4
			c-0.6-0.5-1.6-0.8-2.9-0.8h-3v6.5H72.3z"/>
		<path class="st3" d="M97.9,377.4L89.4,392H87v-18.4h2.4v14.6l8.6-14.6h2.3V392h-2.3V377.4z"/>
		<path class="st3" d="M113.4,384.4c-0.1,1.2-0.3,2.3-0.5,3.2c-0.2,1-0.5,1.8-0.8,2.4c-0.3,0.7-0.8,1.2-1.3,1.5
			c-0.5,0.4-1.2,0.5-1.9,0.5c-0.2,0-0.4,0-0.6-0.1c-0.1,0-0.2-0.1-0.2-0.1v-2c0,0,0.1,0,0.1,0c0.1,0,0.2,0,0.3,0
			c0.8,0,1.4-0.5,1.8-1.5c0.4-1,0.7-2.4,0.8-4.4c0.1-1.2,0.1-2.4,0.2-3.6c0-1.2,0.1-2.4,0.1-3.4c0-1.2,0-2.4,0-3.5h10.2V392h-2.3
			v-16.3h-5.8c0,0.4,0,0.9,0,1.5s0,1.3,0,2.1c0,0.8,0,1.6-0.1,2.5C113.5,382.7,113.5,383.5,113.4,384.4z"/>
		<path class="st3" d="M131.3,373.6h2.4v8h1.3l5.7-8h2.5l-6.3,8.9l6.7,9.5h-2.7l-5.9-8.3h-1.3v8.3h-2.4V373.6z"/>
		<path class="st3" d="M156.8,392.2c-2.4,0-4.2-0.8-5.4-2.4c-1.2-1.6-1.8-4-1.8-7c0-3.1,0.6-5.4,1.8-7c1.2-1.6,3-2.4,5.4-2.4
			c2.4,0,4.2,0.8,5.4,2.4c1.2,1.6,1.8,4,1.8,7c0,3.1-0.6,5.4-1.8,7C161,391.4,159.2,392.2,156.8,392.2z M156.8,390.2
			c1.7,0,2.9-0.6,3.6-1.8c0.8-1.2,1.2-3.1,1.2-5.6s-0.4-4.4-1.2-5.6c-0.8-1.2-2-1.8-3.6-1.8c-1.7,0-2.9,0.6-3.6,1.8
			c-0.8,1.2-1.2,3.1-1.2,5.6s0.4,4.4,1.2,5.6C153.9,389.6,155.1,390.2,156.8,390.2z"/>
		<path class="st3" d="M174.4,377.1l-0.6,14.9h-2.1l0.8-18.4h2.7l5.1,13.7l5.1-13.7h2.6l0.8,18.4h-2.3l-0.6-14.9l-5,13.7h-1.7
			L174.4,377.1z"/>
	</g>
</g>
</svg>
